  near/all: 0.0148620605469 for Xcandy
near/all: 0.0100860595703 for Xcomposition_vii
near/all: 0.0134023030599 for Xfamosas-crop
near/all: 0.0113627115885 for Xfeathers
near/all: 0.0183715820312 for Xla_muse
near/all: 0.034418741862 for Xmosaic
near/all: 0.0131327311198 for Xstarry_night
near/all: 0.0154978434245 for Xthe_scream
near/all: 0.00836690266927 for Xudnie
near/all: 0.0075429280599 for Xwave

near/all: 0.0147043863932 for average
