Namespace(content='images/content/hoovertowernight.jpg'
content_layers='conv3_3'
content_weight=1
height=None
initial_image='random'
initial_image_file=None
iter=500
optimizer='lbfgs'
out_dir='Iterative_tv1e-4_hoovertowernightXcandy'
out_file_name='contentnameXstylename'
random_seed=129632295
save_iter=1000
style='images/styles/candy.jpg'
style_layers='conv1_2,conv2_2,conv3_3,conv4_3'
style_weight=5
tv_weight=0.0001
width=256)[21.04.17 19:11:47] Ep:0.0000 it:0000/500 25942669.2=sum 25094010.5=ls   422219.1=lc       -1.0=lref   426439.7=ltv  $hoovertowernightXcandy
[21.04.17 19:11:50] Ep:0.0000 it:0001/500  1274042.0=sum   595955.7=ls   591309.2=lc       -1.0=lref    86777.0=ltv  $hoovertowernightXcandy
[21.04.17 19:11:53] Ep:0.0000 it:0002/500   930893.0=sum   406108.6=ls   493205.2=lc       -1.0=lref    31579.3=ltv  $hoovertowernightXcandy
[21.04.17 19:11:56] Ep:0.0000 it:0003/500   884612.5=sum   417609.9=ls   441437.5=lc       -1.0=lref    25565.1=ltv  $hoovertowernightXcandy
[21.04.17 19:11:59] Ep:0.0000 it:0004/500   856462.7=sum   412426.4=ls   419701.5=lc       -1.0=lref    24334.8=ltv  $hoovertowernightXcandy
[21.04.17 19:12:02] Ep:0.0000 it:0005/500   826618.0=sum   394492.9=ls   408381.1=lc       -1.0=lref    23744.0=ltv  $hoovertowernightXcandy
[21.04.17 19:12:04] Ep:0.0000 it:0006/500   815165.6=sum   391909.8=ls   399877.2=lc       -1.0=lref    23378.6=ltv  $hoovertowernightXcandy
[21.04.17 19:12:07] Ep:0.0000 it:0007/500   788007.0=sum   370442.9=ls   394400.5=lc       -1.0=lref    23163.6=ltv  $hoovertowernightXcandy
[21.04.17 19:12:10] Ep:0.0000 it:0008/500   773794.4=sum   361317.0=ls   389440.4=lc       -1.0=lref    23036.9=ltv  $hoovertowernightXcandy
[21.04.17 19:12:12] Ep:0.0000 it:0009/500   751231.9=sum   341948.2=ls   386285.3=lc       -1.0=lref    22998.4=ltv  $hoovertowernightXcandy
[21.04.17 19:12:15] Ep:0.0000 it:0010/500   741572.7=sum   335202.8=ls   383439.1=lc       -1.0=lref    22930.8=ltv  $hoovertowernightXcandy
[21.04.17 19:12:18] Ep:0.0000 it:0011/500   717940.1=sum   311489.6=ls   383504.1=lc       -1.0=lref    22946.4=ltv  $hoovertowernightXcandy
[21.04.17 19:12:21] Ep:0.0000 it:0012/500   744643.3=sum   345218.5=ls   376808.8=lc       -1.0=lref    22616.0=ltv  $hoovertowernightXcandy
[21.04.17 19:12:24] Ep:0.0000 it:0013/500   716533.0=sum   315678.7=ls   378104.6=lc       -1.0=lref    22749.6=ltv  $hoovertowernightXcandy
[21.04.17 19:12:27] Ep:0.0000 it:0014/500   721915.5=sum   323833.8=ls   375438.7=lc       -1.0=lref    22643.0=ltv  $hoovertowernightXcandy
[21.04.17 19:12:29] Ep:0.0000 it:0015/500   702367.0=sum   303130.5=ls   376487.6=lc       -1.0=lref    22748.8=ltv  $hoovertowernightXcandy
[21.04.17 19:12:32] Ep:0.0000 it:0016/500   714980.4=sum   318972.1=ls   373412.1=lc       -1.0=lref    22596.1=ltv  $hoovertowernightXcandy
[21.04.17 19:12:35] Ep:0.0000 it:0017/500   693605.9=sum   295993.0=ls   374882.2=lc       -1.0=lref    22730.6=ltv  $hoovertowernightXcandy
[21.04.17 19:12:37] Ep:0.0000 it:0018/500   694172.9=sum   297832.3=ls   373651.0=lc       -1.0=lref    22689.6=ltv  $hoovertowernightXcandy
[21.04.17 19:12:40] Ep:0.0000 it:0019/500   685046.4=sum   288200.8=ls   374107.5=lc       -1.0=lref    22738.1=ltv  $hoovertowernightXcandy
[21.04.17 19:12:43] Ep:0.0000 it:0020/500   694109.1=sum   299506.3=ls   371967.6=lc       -1.0=lref    22635.3=ltv  $hoovertowernightXcandy
[21.04.17 19:12:46] Ep:0.0000 it:0021/500   694673.7=sum   300958.8=ls   371133.3=lc       -1.0=lref    22581.6=ltv  $hoovertowernightXcandy
[21.04.17 19:12:49] Ep:0.0000 it:0022/500   686717.8=sum   292814.2=ls   371273.4=lc       -1.0=lref    22630.2=ltv  $hoovertowernightXcandy
[21.04.17 19:12:51] Ep:0.0000 it:0023/500   681405.9=sum   287278.3=ls   371469.2=lc       -1.0=lref    22658.3=ltv  $hoovertowernightXcandy
[21.04.17 19:12:54] Ep:0.0000 it:0024/500   679638.1=sum   285771.3=ls   371223.9=lc       -1.0=lref    22642.8=ltv  $hoovertowernightXcandy
[21.04.17 19:12:57] Ep:0.0000 it:0025/500   672611.5=sum   278469.1=ls   371446.9=lc       -1.0=lref    22695.5=ltv  $hoovertowernightXcandy
[21.04.17 19:13:00] Ep:0.0000 it:0026/500   675212.9=sum   281868.5=ls   370703.4=lc       -1.0=lref    22641.1=ltv  $hoovertowernightXcandy
[21.04.17 19:13:03] Ep:0.0000 it:0027/500   666612.0=sum   272409.1=ls   371490.4=lc       -1.0=lref    22712.5=ltv  $hoovertowernightXcandy
[21.04.17 19:13:06] Ep:0.0000 it:0028/500   671214.4=sum   278130.5=ls   370432.4=lc       -1.0=lref    22651.5=ltv  $hoovertowernightXcandy
[21.04.17 19:13:08] Ep:0.0000 it:0029/500   654981.5=sum   259846.7=ls   372346.8=lc       -1.0=lref    22788.0=ltv  $hoovertowernightXcandy
[21.04.17 19:13:11] Ep:0.0000 it:0030/500   681375.2=sum   290698.6=ls   368151.2=lc       -1.0=lref    22525.3=ltv  $hoovertowernightXcandy
[21.04.17 19:13:14] Ep:0.0000 it:0031/500   658707.3=sum   265197.1=ls   370789.8=lc       -1.0=lref    22720.5=ltv  $hoovertowernightXcandy
[21.04.17 19:13:17] Ep:0.0000 it:0032/500   680119.4=sum   289956.3=ls   367654.7=lc       -1.0=lref    22508.4=ltv  $hoovertowernightXcandy
[21.04.17 19:13:20] Ep:0.0000 it:0033/500   661880.2=sum   269522.1=ls   369700.4=lc       -1.0=lref    22657.7=ltv  $hoovertowernightXcandy
[21.04.17 19:13:22] Ep:0.0000 it:0034/500   657725.5=sum   264993.4=ls   370045.5=lc       -1.0=lref    22686.6=ltv  $hoovertowernightXcandy
[21.04.17 19:13:25] Ep:0.0000 it:0035/500   650717.8=sum   257267.8=ls   370698.2=lc       -1.0=lref    22751.9=ltv  $hoovertowernightXcandy
[21.04.17 19:13:28] Ep:0.0000 it:0036/500   666799.5=sum   276036.9=ls   368183.2=lc       -1.0=lref    22579.4=ltv  $hoovertowernightXcandy
[21.04.17 19:13:31] Ep:0.0000 it:0037/500   654578.4=sum   262312.9=ls   369595.0=lc       -1.0=lref    22670.5=ltv  $hoovertowernightXcandy
[21.04.17 19:13:33] Ep:0.0000 it:0038/500   676658.1=sum   288388.3=ls   365812.0=lc       -1.0=lref    22457.8=ltv  $hoovertowernightXcandy
[21.04.17 19:13:36] Ep:0.0000 it:0039/500   665944.6=sum   276344.0=ls   367063.6=lc       -1.0=lref    22537.0=ltv  $hoovertowernightXcandy
[21.04.17 19:13:39] Ep:0.0000 it:0040/500   645629.3=sum   253148.1=ls   369761.9=lc       -1.0=lref    22719.3=ltv  $hoovertowernightXcandy
[21.04.17 19:13:41] Ep:0.0000 it:0041/500   668234.4=sum   279821.0=ls   365928.3=lc       -1.0=lref    22485.1=ltv  $hoovertowernightXcandy
[21.04.17 19:13:44] Ep:0.0000 it:0042/500   639426.4=sum   246553.7=ls   370128.8=lc       -1.0=lref    22743.9=ltv  $hoovertowernightXcandy
[21.04.17 19:13:47] Ep:0.0000 it:0043/500   649204.1=sum   258201.2=ls   368353.9=lc       -1.0=lref    22649.0=ltv  $hoovertowernightXcandy
[21.04.17 19:13:50] Ep:0.0000 it:0044/500   646282.9=sum   255247.7=ls   368373.6=lc       -1.0=lref    22661.7=ltv  $hoovertowernightXcandy
[21.04.17 19:13:53] Ep:0.0000 it:0045/500   657542.5=sum   268698.1=ls   366295.4=lc       -1.0=lref    22548.9=ltv  $hoovertowernightXcandy
[21.04.17 19:13:55] Ep:0.0000 it:0046/500   651489.7=sum   262115.9=ls   366787.8=lc       -1.0=lref    22586.0=ltv  $hoovertowernightXcandy
[21.04.17 19:13:59] Ep:0.0000 it:0047/500   655797.9=sum   267273.5=ls   366000.1=lc       -1.0=lref    22524.3=ltv  $hoovertowernightXcandy
[21.04.17 19:14:02] Ep:0.0000 it:0048/500   648910.1=sum   259633.1=ls   366693.4=lc       -1.0=lref    22583.7=ltv  $hoovertowernightXcandy
[21.04.17 19:14:05] Ep:0.0000 it:0049/500   653724.4=sum   265599.5=ls   365592.8=lc       -1.0=lref    22532.1=ltv  $hoovertowernightXcandy
[21.04.17 19:14:08] Ep:0.0000 it:0050/500   634346.2=sum   243250.0=ls   368385.6=lc       -1.0=lref    22710.6=ltv  $hoovertowernightXcandy
[21.04.17 19:14:10] Ep:0.0000 it:0051/500   645481.1=sum   256521.1=ls   366358.2=lc       -1.0=lref    22601.8=ltv  $hoovertowernightXcandy
[21.04.17 19:14:13] Ep:0.0000 it:0052/500   643117.5=sum   253982.4=ls   366514.3=lc       -1.0=lref    22620.8=ltv  $hoovertowernightXcandy
[21.04.17 19:14:16] Ep:0.0000 it:0053/500   646214.4=sum   257892.8=ls   365735.5=lc       -1.0=lref    22586.1=ltv  $hoovertowernightXcandy
[21.04.17 19:14:19] Ep:0.0000 it:0054/500   647691.3=sum   259848.4=ls   365286.5=lc       -1.0=lref    22556.4=ltv  $hoovertowernightXcandy
[21.04.17 19:14:22] Ep:0.0000 it:0055/500   647318.7=sum   259526.2=ls   365242.7=lc       -1.0=lref    22549.8=ltv  $hoovertowernightXcandy
[21.04.17 19:14:25] Ep:0.0000 it:0056/500   643937.6=sum   255940.6=ls   365410.7=lc       -1.0=lref    22586.3=ltv  $hoovertowernightXcandy
[21.04.17 19:14:28] Ep:0.0000 it:0057/500   649911.2=sum   262938.4=ls   364450.0=lc       -1.0=lref    22522.7=ltv  $hoovertowernightXcandy
[21.04.17 19:14:30] Ep:0.0000 it:0058/500   633990.7=sum   244892.6=ls   366412.6=lc       -1.0=lref    22685.5=ltv  $hoovertowernightXcandy
[21.04.17 19:14:33] Ep:0.0000 it:0059/500   644077.2=sum   256718.6=ls   364775.6=lc       -1.0=lref    22583.0=ltv  $hoovertowernightXcandy
[21.04.17 19:14:36] Ep:0.0000 it:0060/500   646697.6=sum   260065.6=ls   364094.9=lc       -1.0=lref    22537.1=ltv  $hoovertowernightXcandy
[21.04.17 19:14:39] Ep:0.0000 it:0061/500   631426.1=sum   242392.0=ls   366357.2=lc       -1.0=lref    22676.9=ltv  $hoovertowernightXcandy
[21.04.17 19:14:42] Ep:0.0000 it:0062/500   642751.9=sum   255833.8=ls   364337.4=lc       -1.0=lref    22580.6=ltv  $hoovertowernightXcandy
[21.04.17 19:14:44] Ep:0.0000 it:0063/500   649196.5=sum   263618.5=ls   363077.0=lc       -1.0=lref    22500.9=ltv  $hoovertowernightXcandy
[21.04.17 19:14:47] Ep:0.0000 it:0064/500   638048.8=sum   250845.1=ls   364609.9=lc       -1.0=lref    22593.8=ltv  $hoovertowernightXcandy
[21.04.17 19:14:50] Ep:0.0000 it:0065/500   639379.4=sum   252601.5=ls   364197.8=lc       -1.0=lref    22580.1=ltv  $hoovertowernightXcandy
[21.04.17 19:14:53] Ep:0.0000 it:0066/500   629409.0=sum   241130.9=ls   365603.8=lc       -1.0=lref    22674.4=ltv  $hoovertowernightXcandy
[21.04.17 19:14:55] Ep:0.0000 it:0067/500   635455.8=sum   248270.6=ls   364575.3=lc       -1.0=lref    22609.8=ltv  $hoovertowernightXcandy
[21.04.17 19:14:58] Ep:0.0000 it:0068/500   635363.6=sum   248363.3=ls   364395.0=lc       -1.0=lref    22605.3=ltv  $hoovertowernightXcandy
[21.04.17 19:15:02] Ep:0.0000 it:0069/500   639010.6=sum   252892.4=ls   363544.2=lc       -1.0=lref    22574.0=ltv  $hoovertowernightXcandy
[21.04.17 19:15:06] Ep:0.0000 it:0070/500   638820.1=sum   252859.1=ls   363387.7=lc       -1.0=lref    22573.4=ltv  $hoovertowernightXcandy
[21.04.17 19:15:10] Ep:0.0000 it:0071/500   644507.1=sum   259665.5=ls   362330.6=lc       -1.0=lref    22511.0=ltv  $hoovertowernightXcandy
[21.04.17 19:15:14] Ep:0.0000 it:0072/500   638048.4=sum   252377.8=ls   363099.4=lc       -1.0=lref    22571.2=ltv  $hoovertowernightXcandy
[21.04.17 19:15:19] Ep:0.0000 it:0073/500   637071.9=sum   251604.3=ls   362884.4=lc       -1.0=lref    22583.2=ltv  $hoovertowernightXcandy
[21.04.17 19:15:22] Ep:0.0000 it:0074/500   631622.8=sum   245343.8=ls   363643.6=lc       -1.0=lref    22635.4=ltv  $hoovertowernightXcandy
[21.04.17 19:15:25] Ep:0.0000 it:0075/500   648076.7=sum   264787.1=ls   360807.4=lc       -1.0=lref    22482.1=ltv  $hoovertowernightXcandy
[21.04.17 19:15:28] Ep:0.0000 it:0076/500   633091.5=sum   247497.3=ls   362972.2=lc       -1.0=lref    22622.0=ltv  $hoovertowernightXcandy
[21.04.17 19:15:32] Ep:0.0000 it:0077/500   637704.8=sum   252985.0=ls   362147.5=lc       -1.0=lref    22572.3=ltv  $hoovertowernightXcandy
[21.04.17 19:15:35] Ep:0.0000 it:0078/500   629846.9=sum   243971.4=ls   363234.2=lc       -1.0=lref    22641.3=ltv  $hoovertowernightXcandy
[21.04.17 19:15:38] Ep:0.0000 it:0079/500   635637.1=sum   250896.8=ls   362159.1=lc       -1.0=lref    22581.3=ltv  $hoovertowernightXcandy
[21.04.17 19:15:42] Ep:0.0000 it:0080/500   633263.8=sum   248443.2=ls   362214.9=lc       -1.0=lref    22605.7=ltv  $hoovertowernightXcandy
[21.04.17 19:15:45] Ep:0.0000 it:0081/500   636318.0=sum   252066.8=ls   361692.2=lc       -1.0=lref    22559.0=ltv  $hoovertowernightXcandy
[21.04.17 19:15:48] Ep:0.0000 it:0082/500   633476.2=sum   248967.7=ls   361926.0=lc       -1.0=lref    22582.5=ltv  $hoovertowernightXcandy
[21.04.17 19:15:51] Ep:0.0000 it:0083/500   637878.2=sum   254138.6=ls   361206.7=lc       -1.0=lref    22532.9=ltv  $hoovertowernightXcandy
[21.04.17 19:15:54] Ep:0.0000 it:0084/500   628567.7=sum   243462.5=ls   362486.9=lc       -1.0=lref    22618.3=ltv  $hoovertowernightXcandy
[21.04.17 19:15:57] Ep:0.0000 it:0085/500   640662.4=sum   257530.9=ls   360626.1=lc       -1.0=lref    22505.4=ltv  $hoovertowernightXcandy
[21.04.17 19:16:00] Ep:0.0000 it:0086/500   626680.8=sum   241498.6=ls   362543.6=lc       -1.0=lref    22638.7=ltv  $hoovertowernightXcandy
[21.04.17 19:16:03] Ep:0.0000 it:0087/500   633710.4=sum   249671.1=ls   361471.8=lc       -1.0=lref    22567.4=ltv  $hoovertowernightXcandy
[21.04.17 19:16:05] Ep:0.0000 it:0088/500   625558.4=sum   240255.1=ls   362659.6=lc       -1.0=lref    22643.7=ltv  $hoovertowernightXcandy
[21.04.17 19:16:09] Ep:0.0000 it:0089/500   627826.8=sum   243023.1=ls   362180.4=lc       -1.0=lref    22623.3=ltv  $hoovertowernightXcandy
[21.04.17 19:16:13] Ep:0.0000 it:0090/500   632261.8=sum   248444.9=ls   361240.2=lc       -1.0=lref    22576.7=ltv  $hoovertowernightXcandy
[21.04.17 19:16:16] Ep:0.0000 it:0091/500   626798.5=sum   242168.0=ls   361997.9=lc       -1.0=lref    22632.5=ltv  $hoovertowernightXcandy
[21.04.17 19:16:19] Ep:0.0000 it:0092/500   632372.3=sum   248608.9=ls   361194.7=lc       -1.0=lref    22568.8=ltv  $hoovertowernightXcandy
[21.04.17 19:16:22] Ep:0.0000 it:0093/500   635949.9=sum   252919.9=ls   360507.7=lc       -1.0=lref    22522.3=ltv  $hoovertowernightXcandy
[21.04.17 19:16:25] Ep:0.0000 it:0094/500   633934.4=sum   250791.5=ls   360603.4=lc       -1.0=lref    22539.4=ltv  $hoovertowernightXcandy
[21.04.17 19:16:28] Ep:0.0000 it:0095/500   637132.2=sum   254660.1=ls   359964.7=lc       -1.0=lref    22507.4=ltv  $hoovertowernightXcandy
[21.04.17 19:16:31] Ep:0.0000 it:0096/500   631565.8=sum   248084.6=ls   360923.2=lc       -1.0=lref    22558.1=ltv  $hoovertowernightXcandy
[21.04.17 19:16:34] Ep:0.0000 it:0097/500   635924.2=sum   253251.8=ls   360157.8=lc       -1.0=lref    22514.6=ltv  $hoovertowernightXcandy
[21.04.17 19:16:37] Ep:0.0000 it:0098/500   634149.1=sum   251298.9=ls   360323.0=lc       -1.0=lref    22527.2=ltv  $hoovertowernightXcandy
[21.04.17 19:16:40] Ep:0.0000 it:0099/500   634315.1=sum   251630.7=ls   360150.2=lc       -1.0=lref    22534.2=ltv  $hoovertowernightXcandy
[21.04.17 19:16:44] Ep:0.0000 it:0100/500   634807.5=sum   252262.8=ls   360014.4=lc       -1.0=lref    22530.3=ltv  $hoovertowernightXcandy
[21.04.17 19:16:47] Ep:0.0000 it:0101/500   630003.4=sum   246712.5=ls   360715.0=lc       -1.0=lref    22575.8=ltv  $hoovertowernightXcandy
[21.04.17 19:16:49] Ep:0.0000 it:0102/500   635237.4=sum   252995.3=ls   359721.4=lc       -1.0=lref    22520.7=ltv  $hoovertowernightXcandy
[21.04.17 19:16:53] Ep:0.0000 it:0103/500   632612.9=sum   249897.5=ls   360180.7=lc       -1.0=lref    22534.7=ltv  $hoovertowernightXcandy
[21.04.17 19:16:56] Ep:0.0000 it:0104/500   627581.2=sum   244165.4=ls   360816.9=lc       -1.0=lref    22598.9=ltv  $hoovertowernightXcandy
[21.04.17 19:16:59] Ep:0.0000 it:0105/500   635389.1=sum   253378.3=ls   359487.5=lc       -1.0=lref    22523.3=ltv  $hoovertowernightXcandy
[21.04.17 19:17:02] Ep:0.0000 it:0106/500   623354.3=sum   239341.2=ls   361377.2=lc       -1.0=lref    22635.9=ltv  $hoovertowernightXcandy
[21.04.17 19:17:05] Ep:0.0000 it:0107/500   634905.6=sum   253029.6=ls   359367.4=lc       -1.0=lref    22508.6=ltv  $hoovertowernightXcandy
[21.04.17 19:17:07] Ep:0.0000 it:0108/500   632605.1=sum   250390.9=ls   359676.8=lc       -1.0=lref    22537.4=ltv  $hoovertowernightXcandy
[21.04.17 19:17:10] Ep:0.0000 it:0109/500   624030.6=sum   240394.2=ls   361011.9=lc       -1.0=lref    22624.5=ltv  $hoovertowernightXcandy
[21.04.17 19:17:13] Ep:0.0000 it:0110/500   628647.4=sum   245916.0=ls   360151.0=lc       -1.0=lref    22580.5=ltv  $hoovertowernightXcandy
[21.04.17 19:17:16] Ep:0.0000 it:0111/500   628244.8=sum   245488.2=ls   360181.1=lc       -1.0=lref    22575.5=ltv  $hoovertowernightXcandy
[21.04.17 19:17:18] Ep:0.0000 it:0112/500   617002.8=sum   232363.2=ls   361952.0=lc       -1.0=lref    22687.6=ltv  $hoovertowernightXcandy
[21.04.17 19:17:22] Ep:0.0000 it:0113/500   638270.3=sum   257196.3=ls   358610.9=lc       -1.0=lref    22463.0=ltv  $hoovertowernightXcandy
[21.04.17 19:17:25] Ep:0.0000 it:0114/500   621812.8=sum   238072.6=ls   361111.8=lc       -1.0=lref    22628.4=ltv  $hoovertowernightXcandy
[21.04.17 19:17:28] Ep:0.0000 it:0115/500   632079.2=sum   250228.6=ls   359325.5=lc       -1.0=lref    22525.2=ltv  $hoovertowernightXcandy
[21.04.17 19:17:30] Ep:0.0000 it:0116/500   624726.7=sum   241656.8=ls   360482.8=lc       -1.0=lref    22587.1=ltv  $hoovertowernightXcandy
[21.04.17 19:17:34] Ep:0.0000 it:0117/500   618283.4=sum   234333.4=ls   361288.2=lc       -1.0=lref    22661.8=ltv  $hoovertowernightXcandy
[21.04.17 19:17:38] Ep:0.0000 it:0118/500   619514.0=sum   235694.7=ls   361182.6=lc       -1.0=lref    22636.8=ltv  $hoovertowernightXcandy
[21.04.17 19:17:41] Ep:0.0000 it:0119/500   620000.0=sum   236271.9=ls   361093.5=lc       -1.0=lref    22634.6=ltv  $hoovertowernightXcandy
[21.04.17 19:17:44] Ep:0.0000 it:0120/500   621907.8=sum   238607.7=ls   360693.0=lc       -1.0=lref    22607.1=ltv  $hoovertowernightXcandy
[21.04.17 19:17:47] Ep:0.0000 it:0121/500   621679.1=sum   238362.8=ls   360712.1=lc       -1.0=lref    22604.2=ltv  $hoovertowernightXcandy
[21.04.17 19:17:51] Ep:0.0000 it:0122/500   620412.6=sum   236988.5=ls   360813.6=lc       -1.0=lref    22610.5=ltv  $hoovertowernightXcandy
[21.04.17 19:17:54] Ep:0.0000 it:0123/500   623505.2=sum   240678.4=ls   360252.6=lc       -1.0=lref    22574.2=ltv  $hoovertowernightXcandy
[21.04.17 19:17:58] Ep:0.0000 it:0124/500   620845.5=sum   237677.7=ls   360564.6=lc       -1.0=lref    22603.2=ltv  $hoovertowernightXcandy
[21.04.17 19:18:02] Ep:0.0000 it:0125/500   606900.6=sum   221198.5=ls   362949.6=lc       -1.0=lref    22752.4=ltv  $hoovertowernightXcandy
[21.04.17 19:18:05] Ep:0.0000 it:0126/500   621883.0=sum   238925.9=ls   360357.9=lc       -1.0=lref    22599.2=ltv  $hoovertowernightXcandy
[21.04.17 19:18:08] Ep:0.0000 it:0127/500   626418.6=sum   244249.4=ls   359629.9=lc       -1.0=lref    22539.3=ltv  $hoovertowernightXcandy
[21.04.17 19:18:11] Ep:0.0000 it:0128/500   620547.0=sum   237521.5=ls   360420.2=lc       -1.0=lref    22605.3=ltv  $hoovertowernightXcandy
[21.04.17 19:18:14] Ep:0.0000 it:0129/500   629111.0=sum   247580.9=ls   359011.8=lc       -1.0=lref    22518.3=ltv  $hoovertowernightXcandy
[21.04.17 19:18:17] Ep:0.0000 it:0130/500   628413.5=sum   246965.3=ls   358915.7=lc       -1.0=lref    22532.5=ltv  $hoovertowernightXcandy
[21.04.17 19:18:19] Ep:0.0000 it:0131/500   627355.2=sum   245586.3=ls   359239.3=lc       -1.0=lref    22529.7=ltv  $hoovertowernightXcandy
[21.04.17 19:18:22] Ep:0.0000 it:0132/500   615841.1=sum   232215.7=ls   360971.8=lc       -1.0=lref    22653.7=ltv  $hoovertowernightXcandy
[21.04.17 19:18:25] Ep:0.0000 it:0133/500   626017.5=sum   244185.0=ls   359285.4=lc       -1.0=lref    22547.1=ltv  $hoovertowernightXcandy
[21.04.17 19:18:28] Ep:0.0000 it:0134/500   622636.3=sum   240293.8=ls   359771.7=lc       -1.0=lref    22570.8=ltv  $hoovertowernightXcandy
[21.04.17 19:18:32] Ep:0.0000 it:0135/500   619353.2=sum   236469.6=ls   360274.2=lc       -1.0=lref    22609.4=ltv  $hoovertowernightXcandy
[21.04.17 19:18:35] Ep:0.0000 it:0136/500   627397.4=sum   246088.3=ls   358787.0=lc       -1.0=lref    22522.0=ltv  $hoovertowernightXcandy
[21.04.17 19:18:39] Ep:0.0000 it:0137/500   630658.8=sum   249933.2=ls   358244.8=lc       -1.0=lref    22480.8=ltv  $hoovertowernightXcandy
[21.04.17 19:18:42] Ep:0.0000 it:0138/500   621966.9=sum   239789.2=ls   359604.2=lc       -1.0=lref    22573.4=ltv  $hoovertowernightXcandy
[21.04.17 19:18:46] Ep:0.0000 it:0139/500   622495.5=sum   240335.1=ls   359592.6=lc       -1.0=lref    22567.9=ltv  $hoovertowernightXcandy
[21.04.17 19:18:50] Ep:0.0000 it:0140/500   623385.4=sum   241528.9=ls   359299.0=lc       -1.0=lref    22557.5=ltv  $hoovertowernightXcandy
[21.04.17 19:18:53] Ep:0.0000 it:0141/500   632855.1=sum   252710.5=ls   357682.3=lc       -1.0=lref    22462.3=ltv  $hoovertowernightXcandy
[21.04.17 19:18:56] Ep:0.0000 it:0142/500   621564.8=sum   239474.9=ls   359519.9=lc       -1.0=lref    22570.0=ltv  $hoovertowernightXcandy
[21.04.17 19:18:59] Ep:0.0000 it:0143/500   622283.7=sum   240229.5=ls   359486.8=lc       -1.0=lref    22567.4=ltv  $hoovertowernightXcandy
[21.04.17 19:19:02] Ep:0.0000 it:0144/500   620513.1=sum   238225.5=ls   359697.8=lc       -1.0=lref    22589.8=ltv  $hoovertowernightXcandy
[21.04.17 19:19:06] Ep:0.0000 it:0145/500   613746.0=sum   230144.4=ls   360945.8=lc       -1.0=lref    22655.8=ltv  $hoovertowernightXcandy
[21.04.17 19:19:09] Ep:0.0000 it:0146/500   618919.3=sum   236323.4=ls   359986.2=lc       -1.0=lref    22609.8=ltv  $hoovertowernightXcandy
[21.04.17 19:19:13] Ep:0.0000 it:0147/500   615369.6=sum   232221.6=ls   360502.7=lc       -1.0=lref    22645.3=ltv  $hoovertowernightXcandy
[21.04.17 19:19:17] Ep:0.0000 it:0148/500   620333.1=sum   237960.8=ls   359795.9=lc       -1.0=lref    22576.3=ltv  $hoovertowernightXcandy
[21.04.17 19:19:20] Ep:0.0000 it:0149/500   610500.1=sum   226481.7=ls   361330.7=lc       -1.0=lref    22687.7=ltv  $hoovertowernightXcandy
[21.04.17 19:19:23] Ep:0.0000 it:0150/500   626421.6=sum   245344.8=ls   358547.1=lc       -1.0=lref    22529.7=ltv  $hoovertowernightXcandy
[21.04.17 19:19:26] Ep:0.0000 it:0151/500   612897.6=sum   229336.8=ls   360904.1=lc       -1.0=lref    22656.7=ltv  $hoovertowernightXcandy
[21.04.17 19:19:28] Ep:0.0000 it:0152/500   626165.6=sum   245132.1=ls   358502.1=lc       -1.0=lref    22531.4=ltv  $hoovertowernightXcandy
[21.04.17 19:19:31] Ep:0.0000 it:0153/500   622346.5=sum   240316.8=ls   359476.2=lc       -1.0=lref    22553.4=ltv  $hoovertowernightXcandy
[21.04.17 19:19:34] Ep:0.0000 it:0154/500   616271.3=sum   233329.7=ls   360322.2=lc       -1.0=lref    22619.4=ltv  $hoovertowernightXcandy
[21.04.17 19:19:37] Ep:0.0000 it:0155/500   624077.9=sum   242576.4=ls   358962.8=lc       -1.0=lref    22538.6=ltv  $hoovertowernightXcandy
[21.04.17 19:19:40] Ep:0.0000 it:0156/500   614021.0=sum   230791.5=ls   360576.5=lc       -1.0=lref    22653.0=ltv  $hoovertowernightXcandy
[21.04.17 19:19:43] Ep:0.0000 it:0157/500   625274.2=sum   244011.8=ls   358728.1=lc       -1.0=lref    22534.3=ltv  $hoovertowernightXcandy
[21.04.17 19:19:46] Ep:0.0000 it:0158/500   616276.8=sum   233340.6=ls   360311.8=lc       -1.0=lref    22624.5=ltv  $hoovertowernightXcandy
[21.04.17 19:19:49] Ep:0.0000 it:0159/500   612863.6=sum   229472.1=ls   360727.1=lc       -1.0=lref    22664.4=ltv  $hoovertowernightXcandy
[21.04.17 19:19:53] Ep:0.0000 it:0160/500   622710.1=sum   241071.5=ls   359077.2=lc       -1.0=lref    22561.4=ltv  $hoovertowernightXcandy
[21.04.17 19:19:56] Ep:0.0000 it:0161/500   616745.5=sum   234011.9=ls   360117.4=lc       -1.0=lref    22616.2=ltv  $hoovertowernightXcandy
[21.04.17 19:20:00] Ep:0.0000 it:0162/500   615390.1=sum   232532.3=ls   360219.0=lc       -1.0=lref    22638.7=ltv  $hoovertowernightXcandy
[21.04.17 19:20:03] Ep:0.0000 it:0163/500   623328.6=sum   241921.5=ls   358858.1=lc       -1.0=lref    22549.0=ltv  $hoovertowernightXcandy
[21.04.17 19:20:07] Ep:0.0000 it:0164/500   615079.4=sum   232173.1=ls   360271.9=lc       -1.0=lref    22634.5=ltv  $hoovertowernightXcandy
[21.04.17 19:20:10] Ep:0.0000 it:0165/500   617141.5=sum   234773.8=ls   359747.6=lc       -1.0=lref    22620.0=ltv  $hoovertowernightXcandy
[21.04.17 19:20:13] Ep:0.0000 it:0166/500   620914.5=sum   239110.8=ls   359233.8=lc       -1.0=lref    22569.9=ltv  $hoovertowernightXcandy
[21.04.17 19:20:16] Ep:0.0000 it:0167/500   618944.9=sum   236838.6=ls   359517.1=lc       -1.0=lref    22589.1=ltv  $hoovertowernightXcandy
[21.04.17 19:20:19] Ep:0.0000 it:0168/500   615382.1=sum   232786.7=ls   359956.6=lc       -1.0=lref    22638.8=ltv  $hoovertowernightXcandy
[21.04.17 19:20:23] Ep:0.0000 it:0169/500   621203.1=sum   239635.1=ls   358987.4=lc       -1.0=lref    22580.5=ltv  $hoovertowernightXcandy
[21.04.17 19:20:26] Ep:0.0000 it:0170/500   621114.3=sum   239587.1=ls   358947.7=lc       -1.0=lref    22579.6=ltv  $hoovertowernightXcandy
[21.04.17 19:20:30] Ep:0.0000 it:0171/500   613948.1=sum   231249.8=ls   360039.8=lc       -1.0=lref    22658.5=ltv  $hoovertowernightXcandy
[21.04.17 19:20:33] Ep:0.0000 it:0172/500   614538.1=sum   232001.8=ls   359883.9=lc       -1.0=lref    22652.4=ltv  $hoovertowernightXcandy
[21.04.17 19:20:35] Ep:0.0000 it:0173/500   622822.5=sum   241725.7=ls   358536.4=lc       -1.0=lref    22560.4=ltv  $hoovertowernightXcandy
[21.04.17 19:20:38] Ep:0.0000 it:0174/500   609419.6=sum   226016.4=ls   360692.0=lc       -1.0=lref    22711.2=ltv  $hoovertowernightXcandy
[21.04.17 19:20:41] Ep:0.0000 it:0175/500   616451.6=sum   234283.2=ls   359529.5=lc       -1.0=lref    22638.9=ltv  $hoovertowernightXcandy
[21.04.17 19:20:44] Ep:0.0000 it:0176/500   617275.0=sum   235311.8=ls   359338.0=lc       -1.0=lref    22625.3=ltv  $hoovertowernightXcandy
[21.04.17 19:20:47] Ep:0.0000 it:0177/500   619641.1=sum   238053.4=ls   358987.7=lc       -1.0=lref    22600.0=ltv  $hoovertowernightXcandy
[21.04.17 19:20:50] Ep:0.0000 it:0178/500   618406.6=sum   236683.8=ls   359124.2=lc       -1.0=lref    22598.5=ltv  $hoovertowernightXcandy
[21.04.17 19:20:53] Ep:0.0000 it:0179/500   622620.3=sum   241651.5=ls   358414.8=lc       -1.0=lref    22554.1=ltv  $hoovertowernightXcandy
[21.04.17 19:20:57] Ep:0.0000 it:0180/500   612654.7=sum   230030.0=ls   359959.4=lc       -1.0=lref    22665.2=ltv  $hoovertowernightXcandy
[21.04.17 19:21:01] Ep:0.0000 it:0181/500   606909.2=sum   223213.0=ls   360962.5=lc       -1.0=lref    22733.7=ltv  $hoovertowernightXcandy
[21.04.17 19:21:04] Ep:0.0000 it:0182/500   617569.0=sum   235837.1=ls   359118.0=lc       -1.0=lref    22613.9=ltv  $hoovertowernightXcandy
[21.04.17 19:21:07] Ep:0.0000 it:0183/500   612411.8=sum   229880.4=ls   359859.0=lc       -1.0=lref    22672.4=ltv  $hoovertowernightXcandy
[21.04.17 19:21:09] Ep:0.0000 it:0184/500   619866.3=sum   238548.8=ls   358726.8=lc       -1.0=lref    22590.7=ltv  $hoovertowernightXcandy
[21.04.17 19:21:12] Ep:0.0000 it:0185/500   619547.4=sum   238323.1=ls   358631.7=lc       -1.0=lref    22592.6=ltv  $hoovertowernightXcandy
[21.04.17 19:21:15] Ep:0.0000 it:0186/500   616695.5=sum   235022.9=ls   359043.4=lc       -1.0=lref    22629.2=ltv  $hoovertowernightXcandy
[21.04.17 19:21:18] Ep:0.0000 it:0187/500   618175.0=sum   236881.2=ls   358677.2=lc       -1.0=lref    22616.6=ltv  $hoovertowernightXcandy
[21.04.17 19:21:21] Ep:0.0000 it:0188/500   612354.1=sum   229924.8=ls   359753.7=lc       -1.0=lref    22675.6=ltv  $hoovertowernightXcandy
[21.04.17 19:21:24] Ep:0.0000 it:0189/500   619305.1=sum   238127.8=ls   358576.7=lc       -1.0=lref    22600.6=ltv  $hoovertowernightXcandy
[21.04.17 19:21:27] Ep:0.0000 it:0190/500   620082.6=sum   239109.8=ls   358380.9=lc       -1.0=lref    22591.9=ltv  $hoovertowernightXcandy
[21.04.17 19:21:30] Ep:0.0000 it:0191/500   614893.1=sum   233052.2=ls   359192.1=lc       -1.0=lref    22648.8=ltv  $hoovertowernightXcandy
[21.04.17 19:21:33] Ep:0.0000 it:0192/500   617286.5=sum   235873.5=ls   358791.8=lc       -1.0=lref    22621.2=ltv  $hoovertowernightXcandy
[21.04.17 19:21:36] Ep:0.0000 it:0193/500   613070.2=sum   230967.1=ls   359435.6=lc       -1.0=lref    22667.4=ltv  $hoovertowernightXcandy
[21.04.17 19:21:39] Ep:0.0000 it:0194/500   605273.7=sum   221815.4=ls   360700.9=lc       -1.0=lref    22757.5=ltv  $hoovertowernightXcandy
[21.04.17 19:21:41] Ep:0.0000 it:0195/500   611419.1=sum   229051.0=ls   359673.8=lc       -1.0=lref    22694.3=ltv  $hoovertowernightXcandy
[21.04.17 19:21:44] Ep:0.0000 it:0196/500   618635.0=sum   237497.6=ls   358529.1=lc       -1.0=lref    22608.4=ltv  $hoovertowernightXcandy
[21.04.17 19:21:47] Ep:0.0000 it:0197/500   615976.2=sum   234516.7=ls   358824.9=lc       -1.0=lref    22634.6=ltv  $hoovertowernightXcandy
[21.04.17 19:21:50] Ep:0.0000 it:0198/500   613650.9=sum   231769.2=ls   359221.6=lc       -1.0=lref    22660.0=ltv  $hoovertowernightXcandy
[21.04.17 19:21:53] Ep:0.0000 it:0199/500   616555.8=sum   235240.0=ls   358691.6=lc       -1.0=lref    22624.2=ltv  $hoovertowernightXcandy
[21.04.17 19:21:56] Ep:0.0000 it:0200/500   614471.6=sum   232858.5=ls   358955.5=lc       -1.0=lref    22657.6=ltv  $hoovertowernightXcandy
[21.04.17 19:21:59] Ep:0.0000 it:0201/500   614129.1=sum   232418.5=ls   359050.0=lc       -1.0=lref    22660.5=ltv  $hoovertowernightXcandy
[21.04.17 19:22:02] Ep:0.0000 it:0202/500   620519.7=sum   240063.2=ls   357861.7=lc       -1.0=lref    22594.8=ltv  $hoovertowernightXcandy
[21.04.17 19:22:05] Ep:0.0000 it:0203/500   622605.5=sum   242441.0=ls   357606.9=lc       -1.0=lref    22557.5=ltv  $hoovertowernightXcandy
[21.04.17 19:22:08] Ep:0.0000 it:0204/500   614823.6=sum   233459.5=ls   358716.6=lc       -1.0=lref    22647.4=ltv  $hoovertowernightXcandy
[21.04.17 19:22:11] Ep:0.0000 it:0205/500   615406.7=sum   234204.0=ls   358552.4=lc       -1.0=lref    22650.3=ltv  $hoovertowernightXcandy
[21.04.17 19:22:13] Ep:0.0000 it:0206/500   617760.3=sum   236911.1=ls   358233.2=lc       -1.0=lref    22616.0=ltv  $hoovertowernightXcandy
[21.04.17 19:22:16] Ep:0.0000 it:0207/500   611187.4=sum   229258.8=ls   359247.3=lc       -1.0=lref    22681.2=ltv  $hoovertowernightXcandy
[21.04.17 19:22:19] Ep:0.0000 it:0208/500   612917.8=sum   231292.0=ls   358962.1=lc       -1.0=lref    22663.7=ltv  $hoovertowernightXcandy
[21.04.17 19:22:22] Ep:0.0000 it:0209/500   609878.3=sum   227663.2=ls   359525.1=lc       -1.0=lref    22690.1=ltv  $hoovertowernightXcandy
[21.04.17 19:22:25] Ep:0.0000 it:0210/500   619354.3=sum   238875.5=ls   357888.7=lc       -1.0=lref    22590.1=ltv  $hoovertowernightXcandy
[21.04.17 19:22:27] Ep:0.0000 it:0211/500   615063.6=sum   233863.8=ls   358574.1=lc       -1.0=lref    22625.6=ltv  $hoovertowernightXcandy
[21.04.17 19:22:30] Ep:0.0000 it:0212/500   621287.6=sum   241290.9=ls   357438.4=lc       -1.0=lref    22558.3=ltv  $hoovertowernightXcandy
[21.04.17 19:22:33] Ep:0.0000 it:0213/500   620135.7=sum   239991.3=ls   357573.9=lc       -1.0=lref    22570.6=ltv  $hoovertowernightXcandy
[21.04.17 19:22:36] Ep:0.0000 it:0214/500   618363.5=sum   237934.3=ls   357836.4=lc       -1.0=lref    22592.8=ltv  $hoovertowernightXcandy
[21.04.17 19:22:38] Ep:0.0000 it:0215/500   616339.5=sum   235634.4=ls   358094.6=lc       -1.0=lref    22610.5=ltv  $hoovertowernightXcandy
[21.04.17 19:22:41] Ep:0.0000 it:0216/500   614151.6=sum   233017.3=ls   358492.6=lc       -1.0=lref    22641.7=ltv  $hoovertowernightXcandy
[21.04.17 19:22:44] Ep:0.0000 it:0217/500   616223.6=sum   235449.1=ls   358161.0=lc       -1.0=lref    22613.6=ltv  $hoovertowernightXcandy
[21.04.17 19:22:47] Ep:0.0000 it:0218/500   626306.0=sum   247398.0=ls   356403.8=lc       -1.0=lref    22504.1=ltv  $hoovertowernightXcandy
[21.04.17 19:22:50] Ep:0.0000 it:0219/500   606114.2=sum   223668.8=ls   359728.0=lc       -1.0=lref    22717.5=ltv  $hoovertowernightXcandy
[21.04.17 19:22:52] Ep:0.0000 it:0220/500   619864.8=sum   239732.1=ls   357556.7=lc       -1.0=lref    22576.0=ltv  $hoovertowernightXcandy
[21.04.17 19:22:55] Ep:0.0000 it:0221/500   611658.0=sum   230231.0=ls   358763.1=lc       -1.0=lref    22663.9=ltv  $hoovertowernightXcandy
[21.04.17 19:22:58] Ep:0.0000 it:0222/500   606219.7=sum   223676.6=ls   359827.1=lc       -1.0=lref    22716.1=ltv  $hoovertowernightXcandy
[21.04.17 19:23:01] Ep:0.0000 it:0223/500   624369.8=sum   245125.8=ls   356731.2=lc       -1.0=lref    22512.7=ltv  $hoovertowernightXcandy
[21.04.17 19:23:03] Ep:0.0000 it:0224/500   604934.3=sum   222384.6=ls   359822.2=lc       -1.0=lref    22727.5=ltv  $hoovertowernightXcandy
[21.04.17 19:23:06] Ep:0.0000 it:0225/500   610547.5=sum   229108.2=ls   358756.9=lc       -1.0=lref    22682.3=ltv  $hoovertowernightXcandy
[21.04.17 19:23:09] Ep:0.0000 it:0226/500   614532.4=sum   233873.5=ls   358035.1=lc       -1.0=lref    22623.9=ltv  $hoovertowernightXcandy
[21.04.17 19:23:12] Ep:0.0000 it:0227/500   614631.3=sum   233975.2=ls   358030.2=lc       -1.0=lref    22625.9=ltv  $hoovertowernightXcandy
[21.04.17 19:23:14] Ep:0.0000 it:0228/500   606115.9=sum   223945.5=ls   359456.2=lc       -1.0=lref    22714.3=ltv  $hoovertowernightXcandy
[21.04.17 19:23:17] Ep:0.0000 it:0229/500   615358.1=sum   234839.5=ls   357907.4=lc       -1.0=lref    22611.3=ltv  $hoovertowernightXcandy
[21.04.17 19:23:20] Ep:0.0000 it:0230/500   610533.1=sum   229187.4=ls   358682.5=lc       -1.0=lref    22663.3=ltv  $hoovertowernightXcandy
[21.04.17 19:23:23] Ep:0.0000 it:0231/500   617002.5=sum   236877.4=ls   357535.6=lc       -1.0=lref    22589.5=ltv  $hoovertowernightXcandy
[21.04.17 19:23:26] Ep:0.0000 it:0232/500   611186.9=sum   229953.5=ls   358585.8=lc       -1.0=lref    22647.7=ltv  $hoovertowernightXcandy
[21.04.17 19:23:28] Ep:0.0000 it:0233/500   613819.7=sum   233169.6=ls   358024.2=lc       -1.0=lref    22625.9=ltv  $hoovertowernightXcandy
[21.04.17 19:23:31] Ep:0.0000 it:0234/500   611027.2=sum   229826.2=ls   358554.3=lc       -1.0=lref    22646.7=ltv  $hoovertowernightXcandy
[21.04.17 19:23:34] Ep:0.0000 it:0235/500   619010.2=sum   239141.0=ls   357312.9=lc       -1.0=lref    22556.3=ltv  $hoovertowernightXcandy
[21.04.17 19:23:37] Ep:0.0000 it:0236/500   610589.4=sum   229325.2=ls   358618.0=lc       -1.0=lref    22646.2=ltv  $hoovertowernightXcandy
[21.04.17 19:23:40] Ep:0.0000 it:0237/500   611824.6=sum   230816.3=ls   358365.2=lc       -1.0=lref    22643.1=ltv  $hoovertowernightXcandy
[21.04.17 19:23:43] Ep:0.0000 it:0238/500   607736.7=sum   226060.3=ls   358990.4=lc       -1.0=lref    22686.1=ltv  $hoovertowernightXcandy
[21.04.17 19:23:45] Ep:0.0000 it:0239/500   613768.7=sum   233216.7=ls   357933.5=lc       -1.0=lref    22618.5=ltv  $hoovertowernightXcandy
[21.04.17 19:23:48] Ep:0.0000 it:0240/500   615385.0=sum   235052.7=ls   357737.1=lc       -1.0=lref    22595.2=ltv  $hoovertowernightXcandy
[21.04.17 19:23:51] Ep:0.0000 it:0241/500   607901.9=sum   226369.3=ls   358859.7=lc       -1.0=lref    22672.9=ltv  $hoovertowernightXcandy
[21.04.17 19:23:54] Ep:0.0000 it:0242/500   602681.6=sum   220106.6=ls   359842.3=lc       -1.0=lref    22732.7=ltv  $hoovertowernightXcandy
[21.04.17 19:23:57] Ep:0.0000 it:0243/500   615522.5=sum   235207.2=ls   357714.1=lc       -1.0=lref    22601.2=ltv  $hoovertowernightXcandy
[21.04.17 19:24:00] Ep:0.0000 it:0244/500   608050.3=sum   226476.4=ls   358899.7=lc       -1.0=lref    22674.3=ltv  $hoovertowernightXcandy
[21.04.17 19:24:03] Ep:0.0000 it:0245/500   612894.8=sum   232128.6=ls   358147.0=lc       -1.0=lref    22619.2=ltv  $hoovertowernightXcandy
[21.04.17 19:24:06] Ep:0.0000 it:0246/500   608037.5=sum   226488.9=ls   358879.2=lc       -1.0=lref    22669.4=ltv  $hoovertowernightXcandy
[21.04.17 19:24:09] Ep:0.0000 it:0247/500   612203.8=sum   231375.0=ls   358196.7=lc       -1.0=lref    22632.1=ltv  $hoovertowernightXcandy
[21.04.17 19:24:11] Ep:0.0000 it:0248/500   609923.1=sum   228778.2=ls   358482.9=lc       -1.0=lref    22662.0=ltv  $hoovertowernightXcandy
[21.04.17 19:24:14] Ep:0.0000 it:0249/500   619154.6=sum   239459.6=ls   357137.2=lc       -1.0=lref    22557.8=ltv  $hoovertowernightXcandy
[21.04.17 19:24:17] Ep:0.0000 it:0250/500   606510.7=sum   224707.0=ls   359105.9=lc       -1.0=lref    22697.8=ltv  $hoovertowernightXcandy
[21.04.17 19:24:20] Ep:0.0000 it:0251/500   612793.4=sum   232140.8=ls   358021.6=lc       -1.0=lref    22631.0=ltv  $hoovertowernightXcandy
[21.04.17 19:24:23] Ep:0.0000 it:0252/500   622555.3=sum   243612.1=ls   356419.9=lc       -1.0=lref    22523.3=ltv  $hoovertowernightXcandy
[21.04.17 19:24:26] Ep:0.0000 it:0253/500   614111.3=sum   233682.4=ls   357821.6=lc       -1.0=lref    22607.3=ltv  $hoovertowernightXcandy
[21.04.17 19:24:29] Ep:0.0000 it:0254/500   609632.3=sum   228444.2=ls   358529.1=lc       -1.0=lref    22659.0=ltv  $hoovertowernightXcandy
[21.04.17 19:24:32] Ep:0.0000 it:0255/500   615769.9=sum   235689.6=ls   357488.6=lc       -1.0=lref    22591.7=ltv  $hoovertowernightXcandy
[21.04.17 19:24:35] Ep:0.0000 it:0256/500   610509.4=sum   229444.9=ls   358420.9=lc       -1.0=lref    22643.6=ltv  $hoovertowernightXcandy
[21.04.17 19:24:40] Ep:0.0000 it:0257/500   612594.6=sum   231956.3=ls   358005.1=lc       -1.0=lref    22633.1=ltv  $hoovertowernightXcandy
[21.04.17 19:24:44] Ep:0.0000 it:0258/500   612300.1=sum   231755.8=ls   357916.8=lc       -1.0=lref    22627.6=ltv  $hoovertowernightXcandy
[21.04.17 19:24:49] Ep:0.0000 it:0259/500   608716.3=sum   227425.5=ls   358620.3=lc       -1.0=lref    22670.5=ltv  $hoovertowernightXcandy
[21.04.17 19:24:54] Ep:0.0000 it:0260/500   617373.2=sum   237676.4=ls   357114.2=lc       -1.0=lref    22582.7=ltv  $hoovertowernightXcandy
[21.04.17 19:24:59] Ep:0.0000 it:0261/500   615105.8=sum   235097.8=ls   357414.1=lc       -1.0=lref    22594.0=ltv  $hoovertowernightXcandy
[21.04.17 19:25:02] Ep:0.0000 it:0262/500   614434.4=sum   234233.0=ls   357600.3=lc       -1.0=lref    22601.1=ltv  $hoovertowernightXcandy
[21.04.17 19:25:06] Ep:0.0000 it:0263/500   618879.0=sum   239685.3=ls   356628.8=lc       -1.0=lref    22565.0=ltv  $hoovertowernightXcandy
[21.04.17 19:25:09] Ep:0.0000 it:0264/500   608733.4=sum   227644.3=ls   358420.1=lc       -1.0=lref    22669.0=ltv  $hoovertowernightXcandy
[21.04.17 19:25:12] Ep:0.0000 it:0265/500   612012.4=sum   231529.3=ls   357852.2=lc       -1.0=lref    22630.9=ltv  $hoovertowernightXcandy
[21.04.17 19:25:15] Ep:0.0000 it:0266/500   607446.1=sum   226154.6=ls   358608.4=lc       -1.0=lref    22683.1=ltv  $hoovertowernightXcandy
[21.04.17 19:25:18] Ep:0.0000 it:0267/500   607766.5=sum   226517.9=ls   358570.8=lc       -1.0=lref    22677.8=ltv  $hoovertowernightXcandy
[21.04.17 19:25:21] Ep:0.0000 it:0268/500   617604.5=sum   238098.2=ls   356940.8=lc       -1.0=lref    22565.5=ltv  $hoovertowernightXcandy
[21.04.17 19:25:23] Ep:0.0000 it:0269/500   606046.5=sum   224515.9=ls   358836.6=lc       -1.0=lref    22694.1=ltv  $hoovertowernightXcandy
[21.04.17 19:25:26] Ep:0.0000 it:0270/500   610528.1=sum   229735.1=ls   358151.5=lc       -1.0=lref    22641.5=ltv  $hoovertowernightXcandy
[21.04.17 19:25:29] Ep:0.0000 it:0271/500   609962.1=sum   229177.1=ls   358132.6=lc       -1.0=lref    22652.4=ltv  $hoovertowernightXcandy
[21.04.17 19:25:32] Ep:0.0000 it:0272/500   614475.0=sum   234498.3=ls   357383.9=lc       -1.0=lref    22592.8=ltv  $hoovertowernightXcandy
[21.04.17 19:25:35] Ep:0.0000 it:0273/500   612117.0=sum   231758.3=ls   357731.0=lc       -1.0=lref    22627.8=ltv  $hoovertowernightXcandy
[21.04.17 19:25:38] Ep:0.0000 it:0274/500   608186.8=sum   227129.6=ls   358384.9=lc       -1.0=lref    22672.2=ltv  $hoovertowernightXcandy
[21.04.17 19:25:41] Ep:0.0000 it:0275/500   609946.2=sum   229199.3=ls   358091.2=lc       -1.0=lref    22655.6=ltv  $hoovertowernightXcandy
[21.04.17 19:25:44] Ep:0.0000 it:0276/500   608832.8=sum   227870.2=ls   358296.4=lc       -1.0=lref    22666.2=ltv  $hoovertowernightXcandy
[21.04.17 19:25:47] Ep:0.0000 it:0277/500   607863.3=sum   226789.3=ls   358396.1=lc       -1.0=lref    22678.0=ltv  $hoovertowernightXcandy
[21.04.17 19:25:51] Ep:0.0000 it:0278/500   622699.3=sum   244152.6=ls   356028.6=lc       -1.0=lref    22518.1=ltv  $hoovertowernightXcandy
[21.04.17 19:25:54] Ep:0.0000 it:0279/500   615297.1=sum   235538.0=ls   357172.5=lc       -1.0=lref    22586.6=ltv  $hoovertowernightXcandy
[21.04.17 19:25:57] Ep:0.0000 it:0280/500   616251.3=sum   236572.7=ls   357104.5=lc       -1.0=lref    22574.0=ltv  $hoovertowernightXcandy
[21.04.17 19:26:00] Ep:0.0000 it:0281/500   611080.4=sum   230522.3=ls   357923.5=lc       -1.0=lref    22634.5=ltv  $hoovertowernightXcandy
[21.04.17 19:26:03] Ep:0.0000 it:0282/500   616603.7=sum   237032.3=ls   357004.4=lc       -1.0=lref    22567.0=ltv  $hoovertowernightXcandy
[21.04.17 19:26:06] Ep:0.0000 it:0283/500   617950.3=sum   238643.6=ls   356757.2=lc       -1.0=lref    22549.4=ltv  $hoovertowernightXcandy
[21.04.17 19:26:10] Ep:0.0000 it:0284/500   608036.6=sum   226939.5=ls   358440.3=lc       -1.0=lref    22656.7=ltv  $hoovertowernightXcandy
[21.04.17 19:26:14] Ep:0.0000 it:0285/500   614461.2=sum   234621.5=ls   357246.1=lc       -1.0=lref    22593.7=ltv  $hoovertowernightXcandy
[21.04.17 19:26:17] Ep:0.0000 it:0286/500   604559.7=sum   222927.6=ls   358926.6=lc       -1.0=lref    22705.5=ltv  $hoovertowernightXcandy
[21.04.17 19:26:21] Ep:0.0000 it:0287/500   602053.2=sum   219972.8=ls   359340.6=lc       -1.0=lref    22739.9=ltv  $hoovertowernightXcandy
[21.04.17 19:26:24] Ep:0.0000 it:0288/500   612529.1=sum   232254.8=ls   357665.5=lc       -1.0=lref    22608.8=ltv  $hoovertowernightXcandy
[21.04.17 19:26:26] Ep:0.0000 it:0289/500   606984.1=sum   225762.4=ls   358554.9=lc       -1.0=lref    22666.8=ltv  $hoovertowernightXcandy
[21.04.17 19:26:29] Ep:0.0000 it:0290/500   621220.7=sum   242515.2=ls   356196.7=lc       -1.0=lref    22508.8=ltv  $hoovertowernightXcandy
[21.04.17 19:26:32] Ep:0.0000 it:0291/500   616310.8=sum   236751.9=ls   357003.0=lc       -1.0=lref    22555.9=ltv  $hoovertowernightXcandy
[21.04.17 19:26:35] Ep:0.0000 it:0292/500   607290.0=sum   226200.3=ls   358425.9=lc       -1.0=lref    22663.9=ltv  $hoovertowernightXcandy
[21.04.17 19:26:38] Ep:0.0000 it:0293/500   610381.2=sum   229819.9=ls   357935.4=lc       -1.0=lref    22626.0=ltv  $hoovertowernightXcandy
[21.04.17 19:26:42] Ep:0.0000 it:0294/500   621587.1=sum   242910.7=ls   356179.1=lc       -1.0=lref    22497.3=ltv  $hoovertowernightXcandy
[21.04.17 19:26:46] Ep:0.0000 it:0295/500   612727.0=sum   232574.1=ls   357559.1=lc       -1.0=lref    22593.7=ltv  $hoovertowernightXcandy
[21.04.17 19:26:49] Ep:0.0000 it:0296/500   620255.7=sum   241461.5=ls   356271.7=lc       -1.0=lref    22522.5=ltv  $hoovertowernightXcandy
[21.04.17 19:26:53] Ep:0.0000 it:0297/500   613826.0=sum   233916.8=ls   357320.8=lc       -1.0=lref    22588.3=ltv  $hoovertowernightXcandy
[21.04.17 19:26:56] Ep:0.0000 it:0298/500   612127.5=sum   231999.8=ls   357517.1=lc       -1.0=lref    22610.7=ltv  $hoovertowernightXcandy
[21.04.17 19:27:00] Ep:0.0000 it:0299/500   606508.4=sum   225348.2=ls   358488.9=lc       -1.0=lref    22671.3=ltv  $hoovertowernightXcandy
[21.04.17 19:27:03] Ep:0.0000 it:0300/500   610357.5=sum   229972.9=ls   357753.6=lc       -1.0=lref    22631.0=ltv  $hoovertowernightXcandy
[21.04.17 19:27:07] Ep:0.0000 it:0301/500   616936.8=sum   237627.2=ls   356758.1=lc       -1.0=lref    22551.5=ltv  $hoovertowernightXcandy
[21.04.17 19:27:11] Ep:0.0000 it:0302/500   610335.9=sum   229900.5=ls   357808.9=lc       -1.0=lref    22626.5=ltv  $hoovertowernightXcandy
[21.04.17 19:27:15] Ep:0.0000 it:0303/500   607071.6=sum   226047.3=ls   358354.6=lc       -1.0=lref    22669.8=ltv  $hoovertowernightXcandy
[21.04.17 19:27:19] Ep:0.0000 it:0304/500   604871.6=sum   223325.3=ls   358857.5=lc       -1.0=lref    22688.7=ltv  $hoovertowernightXcandy
[21.04.17 19:27:22] Ep:0.0000 it:0305/500   609613.8=sum   229043.5=ls   357939.0=lc       -1.0=lref    22631.3=ltv  $hoovertowernightXcandy
[21.04.17 19:27:27] Ep:0.0000 it:0306/500   611912.5=sum   231715.1=ls   357587.2=lc       -1.0=lref    22610.2=ltv  $hoovertowernightXcandy
[21.04.17 19:27:31] Ep:0.0000 it:0307/500   618569.1=sum   239655.3=ls   356380.1=lc       -1.0=lref    22533.7=ltv  $hoovertowernightXcandy
[21.04.17 19:27:35] Ep:0.0000 it:0308/500   616948.5=sum   237722.6=ls   356673.9=lc       -1.0=lref    22551.9=ltv  $hoovertowernightXcandy
[21.04.17 19:27:38] Ep:0.0000 it:0309/500   615421.1=sum   235927.9=ls   356931.0=lc       -1.0=lref    22562.2=ltv  $hoovertowernightXcandy
[21.04.17 19:27:41] Ep:0.0000 it:0310/500   612907.2=sum   232977.4=ls   357336.8=lc       -1.0=lref    22593.0=ltv  $hoovertowernightXcandy
[21.04.17 19:27:45] Ep:0.0000 it:0311/500   604944.6=sum   223600.5=ls   358659.8=lc       -1.0=lref    22684.4=ltv  $hoovertowernightXcandy
[21.04.17 19:27:49] Ep:0.0000 it:0312/500   605927.3=sum   224828.5=ls   358416.9=lc       -1.0=lref    22681.9=ltv  $hoovertowernightXcandy
[21.04.17 19:27:51] Ep:0.0000 it:0313/500   615921.6=sum   236476.6=ls   356884.5=lc       -1.0=lref    22560.6=ltv  $hoovertowernightXcandy
[21.04.17 19:27:55] Ep:0.0000 it:0314/500   611768.6=sum   231599.9=ls   357567.6=lc       -1.0=lref    22601.0=ltv  $hoovertowernightXcandy
[21.04.17 19:27:58] Ep:0.0000 it:0315/500   606258.8=sum   225085.1=ls   358507.1=lc       -1.0=lref    22666.5=ltv  $hoovertowernightXcandy
[21.04.17 19:28:01] Ep:0.0000 it:0316/500   608789.9=sum   228101.1=ls   358045.2=lc       -1.0=lref    22643.6=ltv  $hoovertowernightXcandy
[21.04.17 19:28:04] Ep:0.0000 it:0317/500   599527.5=sum   217251.8=ls   359527.3=lc       -1.0=lref    22748.3=ltv  $hoovertowernightXcandy
[21.04.17 19:28:09] Ep:0.0000 it:0318/500   618039.8=sum   239119.3=ls   356380.7=lc       -1.0=lref    22539.8=ltv  $hoovertowernightXcandy
[21.04.17 19:28:13] Ep:0.0000 it:0319/500   606858.5=sum   225993.3=ls   358207.8=lc       -1.0=lref    22657.4=ltv  $hoovertowernightXcandy
[21.04.17 19:28:17] Ep:0.0000 it:0320/500   609696.4=sum   229280.2=ls   357775.4=lc       -1.0=lref    22640.8=ltv  $hoovertowernightXcandy
[21.04.17 19:28:21] Ep:0.0000 it:0321/500   613828.9=sum   234096.1=ls   357152.9=lc       -1.0=lref    22579.9=ltv  $hoovertowernightXcandy
[21.04.17 19:28:24] Ep:0.0000 it:0322/500   612131.2=sum   232114.1=ls   357414.1=lc       -1.0=lref    22603.0=ltv  $hoovertowernightXcandy
[21.04.17 19:28:28] Ep:0.0000 it:0323/500   616413.3=sum   237343.6=ls   356517.5=lc       -1.0=lref    22552.3=ltv  $hoovertowernightXcandy
[21.04.17 19:28:31] Ep:0.0000 it:0324/500   613906.5=sum   234281.3=ls   357050.0=lc       -1.0=lref    22575.1=ltv  $hoovertowernightXcandy
[21.04.17 19:28:34] Ep:0.0000 it:0325/500   613619.6=sum   234028.6=ls   357001.6=lc       -1.0=lref    22589.4=ltv  $hoovertowernightXcandy
[21.04.17 19:28:37] Ep:0.0000 it:0326/500   618304.1=sum   239657.0=ls   356113.2=lc       -1.0=lref    22534.0=ltv  $hoovertowernightXcandy
[21.04.17 19:28:41] Ep:0.0000 it:0327/500   606068.9=sum   225052.8=ls   358347.8=lc       -1.0=lref    22668.2=ltv  $hoovertowernightXcandy
[21.04.17 19:28:44] Ep:0.0000 it:0328/500   615095.6=sum   235705.0=ls   356810.7=lc       -1.0=lref    22579.9=ltv  $hoovertowernightXcandy
[21.04.17 19:28:47] Ep:0.0000 it:0329/500   612078.7=sum   232279.1=ls   357196.5=lc       -1.0=lref    22603.1=ltv  $hoovertowernightXcandy
[21.04.17 19:28:50] Ep:0.0000 it:0330/500   604358.8=sum   223126.7=ls   358537.1=lc       -1.0=lref    22695.0=ltv  $hoovertowernightXcandy
[21.04.17 19:28:53] Ep:0.0000 it:0331/500   606587.0=sum   225857.6=ls   358048.2=lc       -1.0=lref    22681.1=ltv  $hoovertowernightXcandy
[21.04.17 19:28:56] Ep:0.0000 it:0332/500   614253.4=sum   234878.7=ls   356794.1=lc       -1.0=lref    22580.6=ltv  $hoovertowernightXcandy
[21.04.17 19:28:59] Ep:0.0000 it:0333/500   609702.6=sum   229685.0=ls   357378.8=lc       -1.0=lref    22638.7=ltv  $hoovertowernightXcandy
[21.04.17 19:29:02] Ep:0.0000 it:0334/500   618847.3=sum   240350.4=ls   355955.6=lc       -1.0=lref    22541.2=ltv  $hoovertowernightXcandy
[21.04.17 19:29:06] Ep:0.0000 it:0335/500   606997.3=sum   226349.7=ls   357982.8=lc       -1.0=lref    22664.8=ltv  $hoovertowernightXcandy
[21.04.17 19:29:09] Ep:0.0000 it:0336/500   608604.0=sum   228258.2=ls   357691.1=lc       -1.0=lref    22654.6=ltv  $hoovertowernightXcandy
[21.04.17 19:29:12] Ep:0.0000 it:0337/500   616621.0=sum   237734.9=ls   356326.8=lc       -1.0=lref    22559.3=ltv  $hoovertowernightXcandy
[21.04.17 19:29:16] Ep:0.0000 it:0338/500   615034.6=sum   235941.6=ls   356517.2=lc       -1.0=lref    22575.8=ltv  $hoovertowernightXcandy
[21.04.17 19:29:19] Ep:0.0000 it:0339/500   605713.0=sum   224938.2=ls   358092.7=lc       -1.0=lref    22682.1=ltv  $hoovertowernightXcandy
[21.04.17 19:29:22] Ep:0.0000 it:0340/500   614248.4=sum   234953.7=ls   356705.8=lc       -1.0=lref    22588.8=ltv  $hoovertowernightXcandy
[21.04.17 19:29:25] Ep:0.0000 it:0341/500   610198.4=sum   230227.2=ls   357338.7=lc       -1.0=lref    22632.5=ltv  $hoovertowernightXcandy
[21.04.17 19:29:28] Ep:0.0000 it:0342/500   613527.5=sum   234137.9=ls   356791.7=lc       -1.0=lref    22597.9=ltv  $hoovertowernightXcandy
[21.04.17 19:29:31] Ep:0.0000 it:0343/500   612862.2=sum   233295.2=ls   356960.9=lc       -1.0=lref    22606.1=ltv  $hoovertowernightXcandy
[21.04.17 19:29:34] Ep:0.0000 it:0344/500   614237.0=sum   234927.6=ls   356725.2=lc       -1.0=lref    22584.1=ltv  $hoovertowernightXcandy
[21.04.17 19:29:38] Ep:0.0000 it:0345/500   611999.5=sum   232367.8=ls   357023.1=lc       -1.0=lref    22608.6=ltv  $hoovertowernightXcandy
[21.04.17 19:29:41] Ep:0.0000 it:0346/500   606619.3=sum   225944.8=ls   358008.4=lc       -1.0=lref    22666.1=ltv  $hoovertowernightXcandy
[21.04.17 19:29:44] Ep:0.0000 it:0347/500   612761.5=sum   233261.5=ls   356897.4=lc       -1.0=lref    22602.6=ltv  $hoovertowernightXcandy
[21.04.17 19:29:47] Ep:0.0000 it:0348/500   597157.1=sum   214728.1=ls   359661.5=lc       -1.0=lref    22767.6=ltv  $hoovertowernightXcandy
[21.04.17 19:29:50] Ep:0.0000 it:0349/500   612004.5=sum   232265.0=ls   357141.1=lc       -1.0=lref    22598.4=ltv  $hoovertowernightXcandy
[21.04.17 19:29:53] Ep:0.0000 it:0350/500   608055.3=sum   227728.6=ls   357688.6=lc       -1.0=lref    22638.1=ltv  $hoovertowernightXcandy
[21.04.17 19:29:55] Ep:0.0000 it:0351/500   616036.7=sum   237125.5=ls   356354.0=lc       -1.0=lref    22557.2=ltv  $hoovertowernightXcandy
[21.04.17 19:29:58] Ep:0.0000 it:0352/500   610262.6=sum   230357.4=ls   357290.1=lc       -1.0=lref    22615.1=ltv  $hoovertowernightXcandy
[21.04.17 19:30:01] Ep:0.0000 it:0353/500   606219.6=sum   225616.1=ls   357943.8=lc       -1.0=lref    22659.7=ltv  $hoovertowernightXcandy
[21.04.17 19:30:04] Ep:0.0000 it:0354/500   608125.5=sum   227879.4=ls   357602.5=lc       -1.0=lref    22643.6=ltv  $hoovertowernightXcandy
[21.04.17 19:30:07] Ep:0.0000 it:0355/500   608970.5=sum   228899.3=ls   357431.3=lc       -1.0=lref    22639.9=ltv  $hoovertowernightXcandy
[21.04.17 19:30:10] Ep:0.0000 it:0356/500   609079.5=sum   228928.3=ls   357519.3=lc       -1.0=lref    22631.8=ltv  $hoovertowernightXcandy
[21.04.17 19:30:13] Ep:0.0000 it:0357/500   612345.6=sum   232800.2=ls   356959.9=lc       -1.0=lref    22585.4=ltv  $hoovertowernightXcandy
[21.04.17 19:30:16] Ep:0.0000 it:0358/500   607099.3=sum   226628.3=ls   357825.6=lc       -1.0=lref    22645.4=ltv  $hoovertowernightXcandy
[21.04.17 19:30:19] Ep:0.0000 it:0359/500   611720.2=sum   232198.5=ls   356927.7=lc       -1.0=lref    22594.0=ltv  $hoovertowernightXcandy
[21.04.17 19:30:22] Ep:0.0000 it:0360/500   601268.1=sum   219803.5=ls   358752.2=lc       -1.0=lref    22712.4=ltv  $hoovertowernightXcandy
[21.04.17 19:30:25] Ep:0.0000 it:0361/500   617579.1=sum   238978.6=ls   356071.7=lc       -1.0=lref    22528.8=ltv  $hoovertowernightXcandy
[21.04.17 19:30:27] Ep:0.0000 it:0362/500   618168.2=sum   239685.7=ls   355965.8=lc       -1.0=lref    22516.6=ltv  $hoovertowernightXcandy
[21.04.17 19:30:30] Ep:0.0000 it:0363/500   608564.9=sum   228476.3=ls   357463.5=lc       -1.0=lref    22625.1=ltv  $hoovertowernightXcandy
[21.04.17 19:30:33] Ep:0.0000 it:0364/500   598621.6=sum   216750.3=ls   359128.9=lc       -1.0=lref    22742.3=ltv  $hoovertowernightXcandy
[21.04.17 19:30:36] Ep:0.0000 it:0365/500   611668.3=sum   232102.2=ls   356965.5=lc       -1.0=lref    22600.7=ltv  $hoovertowernightXcandy
[21.04.17 19:30:38] Ep:0.0000 it:0366/500   616230.7=sum   237422.9=ls   356267.9=lc       -1.0=lref    22539.9=ltv  $hoovertowernightXcandy
[21.04.17 19:30:41] Ep:0.0000 it:0367/500   613101.0=sum   233717.6=ls   356819.3=lc       -1.0=lref    22564.1=ltv  $hoovertowernightXcandy
[21.04.17 19:30:44] Ep:0.0000 it:0368/500   606496.8=sum   226015.8=ls   357834.2=lc       -1.0=lref    22646.8=ltv  $hoovertowernightXcandy
[21.04.17 19:30:47] Ep:0.0000 it:0369/500   607391.6=sum   227079.0=ls   357676.5=lc       -1.0=lref    22636.1=ltv  $hoovertowernightXcandy
[21.04.17 19:30:49] Ep:0.0000 it:0370/500   614232.9=sum   235332.9=ls   356338.1=lc       -1.0=lref    22561.8=ltv  $hoovertowernightXcandy
[21.04.17 19:30:52] Ep:0.0000 it:0371/500   615064.6=sum   236191.8=ls   356327.4=lc       -1.0=lref    22545.4=ltv  $hoovertowernightXcandy
[21.04.17 19:30:55] Ep:0.0000 it:0372/500   608504.6=sum   228571.2=ls   357317.7=lc       -1.0=lref    22615.7=ltv  $hoovertowernightXcandy
[21.04.17 19:30:57] Ep:0.0000 it:0373/500   610423.3=sum   230775.5=ls   357062.6=lc       -1.0=lref    22585.1=ltv  $hoovertowernightXcandy
[21.04.17 19:31:00] Ep:0.0000 it:0374/500   609615.4=sum   229881.6=ls   357137.9=lc       -1.0=lref    22595.8=ltv  $hoovertowernightXcandy
[21.04.17 19:31:03] Ep:0.0000 it:0375/500   605279.0=sum   224773.6=ls   357863.2=lc       -1.0=lref    22642.1=ltv  $hoovertowernightXcandy
[21.04.17 19:31:06] Ep:0.0000 it:0376/500   607715.4=sum   227848.3=ls   357244.2=lc       -1.0=lref    22622.9=ltv  $hoovertowernightXcandy
[21.04.17 19:31:08] Ep:0.0000 it:0377/500   613711.8=sum   234819.3=ls   356338.4=lc       -1.0=lref    22554.2=ltv  $hoovertowernightXcandy
[21.04.17 19:31:11] Ep:0.0000 it:0378/500   612119.4=sum   232871.3=ls   356681.6=lc       -1.0=lref    22566.5=ltv  $hoovertowernightXcandy
[21.04.17 19:31:15] Ep:0.0000 it:0379/500   609972.2=sum   230325.4=ls   357051.9=lc       -1.0=lref    22594.9=ltv  $hoovertowernightXcandy
[21.04.17 19:31:18] Ep:0.0000 it:0380/500   605745.9=sum   225458.8=ls   357640.0=lc       -1.0=lref    22647.1=ltv  $hoovertowernightXcandy
[21.04.17 19:31:22] Ep:0.0000 it:0381/500   611370.1=sum   232112.7=ls   356668.5=lc       -1.0=lref    22588.9=ltv  $hoovertowernightXcandy
[21.04.17 19:31:25] Ep:0.0000 it:0382/500   607151.7=sum   227105.2=ls   357415.6=lc       -1.0=lref    22630.9=ltv  $hoovertowernightXcandy
[21.04.17 19:31:29] Ep:0.0000 it:0383/500   606868.9=sum   226813.2=ls   357429.0=lc       -1.0=lref    22626.7=ltv  $hoovertowernightXcandy
[21.04.17 19:31:32] Ep:0.0000 it:0384/500   611959.3=sum   232811.7=ls   356579.7=lc       -1.0=lref    22568.0=ltv  $hoovertowernightXcandy
[21.04.17 19:31:36] Ep:0.0000 it:0385/500   612095.0=sum   233161.4=ls   356364.3=lc       -1.0=lref    22569.3=ltv  $hoovertowernightXcandy
[21.04.17 19:31:39] Ep:0.0000 it:0386/500   605883.4=sum   225718.1=ls   357523.0=lc       -1.0=lref    22642.3=ltv  $hoovertowernightXcandy
[21.04.17 19:31:42] Ep:0.0000 it:0387/500   613564.5=sum   234639.7=ls   356370.9=lc       -1.0=lref    22553.9=ltv  $hoovertowernightXcandy
[21.04.17 19:31:46] Ep:0.0000 it:0388/500   601124.4=sum   220033.1=ls   358399.1=lc       -1.0=lref    22692.2=ltv  $hoovertowernightXcandy
[21.04.17 19:31:50] Ep:0.0000 it:0389/500   606764.6=sum   226707.3=ls   357425.6=lc       -1.0=lref    22631.8=ltv  $hoovertowernightXcandy
[21.04.17 19:31:55] Ep:0.0000 it:0390/500   606657.7=sum   226544.6=ls   357476.8=lc       -1.0=lref    22636.2=ltv  $hoovertowernightXcandy
[21.04.17 19:31:58] Ep:0.0000 it:0391/500   609349.4=sum   229780.1=ls   356962.5=lc       -1.0=lref    22606.8=ltv  $hoovertowernightXcandy
[21.04.17 19:32:03] Ep:0.0000 it:0392/500   608623.8=sum   229016.7=ls   356999.4=lc       -1.0=lref    22607.7=ltv  $hoovertowernightXcandy
[21.04.17 19:32:07] Ep:0.0000 it:0393/500   608997.5=sum   229398.3=ls   357004.1=lc       -1.0=lref    22595.1=ltv  $hoovertowernightXcandy
[21.04.17 19:32:11] Ep:0.0000 it:0394/500   604698.1=sum   224394.7=ls   357654.1=lc       -1.0=lref    22649.3=ltv  $hoovertowernightXcandy
[21.04.17 19:32:14] Ep:0.0000 it:0395/500   616321.4=sum   238027.7=ls   355779.8=lc       -1.0=lref    22513.9=ltv  $hoovertowernightXcandy
[21.04.17 19:32:16] Ep:0.0000 it:0396/500   602251.8=sum   221395.9=ls   358194.6=lc       -1.0=lref    22661.3=ltv  $hoovertowernightXcandy
[21.04.17 19:32:19] Ep:0.0000 it:0397/500   610512.1=sum   231195.6=ls   356738.1=lc       -1.0=lref    22578.4=ltv  $hoovertowernightXcandy
[21.04.17 19:32:23] Ep:0.0000 it:0398/500   608234.1=sum   228565.8=ls   357063.9=lc       -1.0=lref    22604.4=ltv  $hoovertowernightXcandy
[21.04.17 19:32:26] Ep:0.0000 it:0399/500   612790.7=sum   233909.1=ls   356329.1=lc       -1.0=lref    22552.6=ltv  $hoovertowernightXcandy
[21.04.17 19:32:28] Ep:0.0000 it:0400/500   606374.6=sum   226383.4=ls   357365.1=lc       -1.0=lref    22626.2=ltv  $hoovertowernightXcandy
[21.04.17 19:32:31] Ep:0.0000 it:0401/500   606750.5=sum   226748.5=ls   357378.3=lc       -1.0=lref    22623.7=ltv  $hoovertowernightXcandy
[21.04.17 19:32:34] Ep:0.0000 it:0402/500   612222.9=sum   233260.3=ls   356401.3=lc       -1.0=lref    22561.3=ltv  $hoovertowernightXcandy
[21.04.17 19:32:37] Ep:0.0000 it:0403/500   607787.0=sum   228028.8=ls   357150.6=lc       -1.0=lref    22607.6=ltv  $hoovertowernightXcandy
[21.04.17 19:32:40] Ep:0.0000 it:0404/500   605424.1=sum   225215.7=ls   357572.2=lc       -1.0=lref    22636.2=ltv  $hoovertowernightXcandy
[21.04.17 19:32:43] Ep:0.0000 it:0405/500   605429.9=sum   225220.4=ls   357578.9=lc       -1.0=lref    22630.6=ltv  $hoovertowernightXcandy
[21.04.17 19:32:46] Ep:0.0000 it:0406/500   612649.5=sum   233624.3=ls   356472.6=lc       -1.0=lref    22552.6=ltv  $hoovertowernightXcandy
[21.04.17 19:32:49] Ep:0.0000 it:0407/500   603854.2=sum   223397.5=ls   357808.1=lc       -1.0=lref    22648.6=ltv  $hoovertowernightXcandy
[21.04.17 19:32:53] Ep:0.0000 it:0408/500   617556.7=sum   239492.8=ls   355569.8=lc       -1.0=lref    22494.1=ltv  $hoovertowernightXcandy
[21.04.17 19:32:56] Ep:0.0000 it:0409/500   602780.4=sum   222098.7=ls   358031.8=lc       -1.0=lref    22649.9=ltv  $hoovertowernightXcandy
[21.04.17 19:32:59] Ep:0.0000 it:0410/500   616233.9=sum   238074.7=ls   355641.9=lc       -1.0=lref    22517.2=ltv  $hoovertowernightXcandy
[21.04.17 19:33:03] Ep:0.0000 it:0411/500   612789.5=sum   233949.0=ls   356298.0=lc       -1.0=lref    22542.6=ltv  $hoovertowernightXcandy
[21.04.17 19:33:06] Ep:0.0000 it:0412/500   612742.8=sum   233966.9=ls   356228.7=lc       -1.0=lref    22547.2=ltv  $hoovertowernightXcandy
[21.04.17 19:33:10] Ep:0.0000 it:0413/500   605443.3=sum   225378.1=ls   357439.6=lc       -1.0=lref    22625.5=ltv  $hoovertowernightXcandy
[21.04.17 19:33:14] Ep:0.0000 it:0414/500   615812.0=sum   237475.9=ls   355823.1=lc       -1.0=lref    22512.9=ltv  $hoovertowernightXcandy
[21.04.17 19:33:17] Ep:0.0000 it:0415/500   606277.6=sum   226341.0=ls   357324.5=lc       -1.0=lref    22612.1=ltv  $hoovertowernightXcandy
[21.04.17 19:33:21] Ep:0.0000 it:0416/500   607612.4=sum   227822.6=ls   357188.6=lc       -1.0=lref    22601.2=ltv  $hoovertowernightXcandy
[21.04.17 19:33:24] Ep:0.0000 it:0417/500   603265.2=sum   222804.6=ls   357809.1=lc       -1.0=lref    22651.6=ltv  $hoovertowernightXcandy
[21.04.17 19:33:27] Ep:0.0000 it:0418/500   608819.5=sum   229333.2=ls   356898.8=lc       -1.0=lref    22587.5=ltv  $hoovertowernightXcandy
[21.04.17 19:33:29] Ep:0.0000 it:0419/500   606627.6=sum   226809.9=ls   357207.9=lc       -1.0=lref    22609.8=ltv  $hoovertowernightXcandy
[21.04.17 19:33:32] Ep:0.0000 it:0420/500   604396.1=sum   224104.9=ls   357658.1=lc       -1.0=lref    22633.1=ltv  $hoovertowernightXcandy
[21.04.17 19:33:35] Ep:0.0000 it:0421/500   603256.0=sum   222754.4=ls   357847.3=lc       -1.0=lref    22654.3=ltv  $hoovertowernightXcandy
[21.04.17 19:33:38] Ep:0.0000 it:0422/500   614578.2=sum   236249.2=ls   355807.6=lc       -1.0=lref    22521.3=ltv  $hoovertowernightXcandy
[21.04.17 19:33:41] Ep:0.0000 it:0423/500   606654.5=sum   226854.6=ls   357192.0=lc       -1.0=lref    22607.9=ltv  $hoovertowernightXcandy
[21.04.17 19:33:44] Ep:0.0000 it:0424/500   609815.9=sum   230615.9=ls   356622.1=lc       -1.0=lref    22577.9=ltv  $hoovertowernightXcandy
[21.04.17 19:33:47] Ep:0.0000 it:0425/500   605751.5=sum   225888.9=ls   357242.4=lc       -1.0=lref    22620.2=ltv  $hoovertowernightXcandy
[21.04.17 19:33:50] Ep:0.0000 it:0426/500   606612.3=sum   226782.6=ls   357214.5=lc       -1.0=lref    22615.2=ltv  $hoovertowernightXcandy
[21.04.17 19:33:53] Ep:0.0000 it:0427/500   613667.4=sum   235223.8=ls   355910.3=lc       -1.0=lref    22533.3=ltv  $hoovertowernightXcandy
[21.04.17 19:33:56] Ep:0.0000 it:0428/500   611121.9=sum   232333.5=ls   356231.4=lc       -1.0=lref    22557.0=ltv  $hoovertowernightXcandy
[21.04.17 19:33:59] Ep:0.0000 it:0429/500   612209.0=sum   233529.2=ls   356139.5=lc       -1.0=lref    22540.3=ltv  $hoovertowernightXcandy
[21.04.17 19:34:03] Ep:0.0000 it:0430/500   611803.5=sum   233062.8=ls   356185.1=lc       -1.0=lref    22555.7=ltv  $hoovertowernightXcandy
[21.04.17 19:34:06] Ep:0.0000 it:0431/500   600743.7=sum   220021.0=ls   358042.9=lc       -1.0=lref    22679.8=ltv  $hoovertowernightXcandy
[21.04.17 19:34:09] Ep:0.0000 it:0432/500   609377.0=sum   230141.4=ls   356654.7=lc       -1.0=lref    22580.9=ltv  $hoovertowernightXcandy
[21.04.17 19:34:12] Ep:0.0000 it:0433/500   607716.2=sum   228304.9=ls   356813.0=lc       -1.0=lref    22598.3=ltv  $hoovertowernightXcandy
[21.04.17 19:34:15] Ep:0.0000 it:0434/500   615612.5=sum   237612.4=ls   355492.9=lc       -1.0=lref    22507.2=ltv  $hoovertowernightXcandy
[21.04.17 19:34:18] Ep:0.0000 it:0435/500   608673.3=sum   229463.0=ls   356628.4=lc       -1.0=lref    22581.9=ltv  $hoovertowernightXcandy
[21.04.17 19:34:23] Ep:0.0000 it:0436/500   607907.0=sum   228563.6=ls   356747.9=lc       -1.0=lref    22595.6=ltv  $hoovertowernightXcandy
[21.04.17 19:34:28] Ep:0.0000 it:0437/500   614954.8=sum   236921.7=ls   355510.9=lc       -1.0=lref    22522.2=ltv  $hoovertowernightXcandy
[21.04.17 19:34:32] Ep:0.0000 it:0438/500   613693.3=sum   235410.3=ls   355758.9=lc       -1.0=lref    22524.1=ltv  $hoovertowernightXcandy
[21.04.17 19:34:34] Ep:0.0000 it:0439/500   612113.6=sum   233611.4=ls   355950.3=lc       -1.0=lref    22551.9=ltv  $hoovertowernightXcandy
[21.04.17 19:34:37] Ep:0.0000 it:0440/500   610797.8=sum   232019.5=ls   356214.0=lc       -1.0=lref    22564.3=ltv  $hoovertowernightXcandy
[21.04.17 19:34:40] Ep:0.0000 it:0441/500   609707.7=sum   230804.8=ls   356326.4=lc       -1.0=lref    22576.5=ltv  $hoovertowernightXcandy
[21.04.17 19:34:43] Ep:0.0000 it:0442/500   605952.6=sum   226409.3=ls   356920.5=lc       -1.0=lref    22622.8=ltv  $hoovertowernightXcandy
[21.04.17 19:34:46] Ep:0.0000 it:0443/500   607786.6=sum   228573.6=ls   356612.4=lc       -1.0=lref    22600.6=ltv  $hoovertowernightXcandy
[21.04.17 19:34:49] Ep:0.0000 it:0444/500   601878.2=sum   221616.2=ls   357594.3=lc       -1.0=lref    22667.7=ltv  $hoovertowernightXcandy
[21.04.17 19:34:53] Ep:0.0000 it:0445/500   610320.8=sum   231496.8=ls   356252.3=lc       -1.0=lref    22571.7=ltv  $hoovertowernightXcandy
[21.04.17 19:34:56] Ep:0.0000 it:0446/500   609081.9=sum   230160.6=ls   356339.9=lc       -1.0=lref    22581.4=ltv  $hoovertowernightXcandy
[21.04.17 19:35:01] Ep:0.0000 it:0447/500   611386.7=sum   232817.3=ls   356014.6=lc       -1.0=lref    22554.7=ltv  $hoovertowernightXcandy
[21.04.17 19:35:05] Ep:0.0000 it:0448/500   615487.5=sum   237683.1=ls   355295.2=lc       -1.0=lref    22509.1=ltv  $hoovertowernightXcandy
[21.04.17 19:35:09] Ep:0.0000 it:0449/500   604057.0=sum   224162.9=ls   357261.1=lc       -1.0=lref    22633.0=ltv  $hoovertowernightXcandy
[21.04.17 19:35:13] Ep:0.0000 it:0450/500   605957.7=sum   226510.2=ls   356832.1=lc       -1.0=lref    22615.4=ltv  $hoovertowernightXcandy
[21.04.17 19:35:17] Ep:0.0000 it:0451/500   610689.9=sum   232011.5=ls   356120.1=lc       -1.0=lref    22558.3=ltv  $hoovertowernightXcandy
[21.04.17 19:35:21] Ep:0.0000 it:0452/500   607406.7=sum   228315.6=ls   356496.7=lc       -1.0=lref    22594.4=ltv  $hoovertowernightXcandy
[21.04.17 19:35:25] Ep:0.0000 it:0453/500   603959.9=sum   224207.3=ls   357112.5=lc       -1.0=lref    22640.1=ltv  $hoovertowernightXcandy
[21.04.17 19:35:28] Ep:0.0000 it:0454/500   608155.5=sum   229124.1=ls   356439.7=lc       -1.0=lref    22591.7=ltv  $hoovertowernightXcandy
[21.04.17 19:35:31] Ep:0.0000 it:0455/500   604497.5=sum   224755.5=ls   357111.4=lc       -1.0=lref    22630.6=ltv  $hoovertowernightXcandy
[21.04.17 19:35:35] Ep:0.0000 it:0456/500   606237.2=sum   226798.3=ls   356826.8=lc       -1.0=lref    22612.1=ltv  $hoovertowernightXcandy
[21.04.17 19:35:37] Ep:0.0000 it:0457/500   606699.6=sum   227377.8=ls   356720.6=lc       -1.0=lref    22601.2=ltv  $hoovertowernightXcandy
[21.04.17 19:35:41] Ep:0.0000 it:0458/500   612089.0=sum   233829.6=ls   355715.2=lc       -1.0=lref    22544.2=ltv  $hoovertowernightXcandy
[21.04.17 19:35:44] Ep:0.0000 it:0459/500   609760.2=sum   231078.4=ls   356114.4=lc       -1.0=lref    22567.4=ltv  $hoovertowernightXcandy
[21.04.17 19:35:46] Ep:0.0000 it:0460/500   608580.8=sum   229728.5=ls   356270.1=lc       -1.0=lref    22582.2=ltv  $hoovertowernightXcandy
[21.04.17 19:35:49] Ep:0.0000 it:0461/500   603638.6=sum   223823.0=ls   357177.8=lc       -1.0=lref    22637.8=ltv  $hoovertowernightXcandy
[21.04.17 19:35:52] Ep:0.0000 it:0462/500   612411.4=sum   234139.4=ls   355731.7=lc       -1.0=lref    22540.4=ltv  $hoovertowernightXcandy
[21.04.17 19:35:55] Ep:0.0000 it:0463/500   602211.5=sum   222118.1=ls   357442.2=lc       -1.0=lref    22651.2=ltv  $hoovertowernightXcandy
[21.04.17 19:35:58] Ep:0.0000 it:0464/500   608839.9=sum   229963.0=ls   356298.2=lc       -1.0=lref    22578.7=ltv  $hoovertowernightXcandy
[21.04.17 19:36:00] Ep:0.0000 it:0465/500   605404.8=sum   225847.4=ls   356946.9=lc       -1.0=lref    22610.5=ltv  $hoovertowernightXcandy
[21.04.17 19:36:03] Ep:0.0000 it:0466/500   615319.9=sum   237599.3=ls   355211.7=lc       -1.0=lref    22508.9=ltv  $hoovertowernightXcandy
[21.04.17 19:36:06] Ep:0.0000 it:0467/500   610246.4=sum   231724.8=ls   355958.6=lc       -1.0=lref    22563.0=ltv  $hoovertowernightXcandy
[21.04.17 19:36:09] Ep:0.0000 it:0468/500   608846.5=sum   230134.4=ls   356130.7=lc       -1.0=lref    22581.5=ltv  $hoovertowernightXcandy
[21.04.17 19:36:12] Ep:0.0000 it:0469/500   604195.4=sum   224620.4=ls   356938.7=lc       -1.0=lref    22636.3=ltv  $hoovertowernightXcandy
[21.04.17 19:36:15] Ep:0.0000 it:0470/500   616898.2=sum   239480.7=ls   354931.2=lc       -1.0=lref    22486.2=ltv  $hoovertowernightXcandy
[21.04.17 19:36:18] Ep:0.0000 it:0471/500   601577.8=sum   221547.5=ls   357365.8=lc       -1.0=lref    22664.6=ltv  $hoovertowernightXcandy
[21.04.17 19:36:20] Ep:0.0000 it:0472/500   604118.4=sum   224470.4=ls   357007.2=lc       -1.0=lref    22640.8=ltv  $hoovertowernightXcandy
[21.04.17 19:36:23] Ep:0.0000 it:0473/500   603646.9=sum   223966.9=ls   357044.3=lc       -1.0=lref    22635.7=ltv  $hoovertowernightXcandy
[21.04.17 19:36:26] Ep:0.0000 it:0474/500   607830.7=sum   228980.4=ls   356260.7=lc       -1.0=lref    22589.5=ltv  $hoovertowernightXcandy
[21.04.17 19:36:29] Ep:0.0000 it:0475/500   604055.1=sum   224530.0=ls   356890.2=lc       -1.0=lref    22635.0=ltv  $hoovertowernightXcandy
[21.04.17 19:36:32] Ep:0.0000 it:0476/500   611935.4=sum   233762.2=ls   355631.1=lc       -1.0=lref    22542.2=ltv  $hoovertowernightXcandy
[21.04.17 19:36:35] Ep:0.0000 it:0477/500   599293.6=sum   218883.4=ls   357723.8=lc       -1.0=lref    22686.4=ltv  $hoovertowernightXcandy
[21.04.17 19:36:38] Ep:0.0000 it:0478/500   605849.1=sum   226685.8=ls   356543.9=lc       -1.0=lref    22619.5=ltv  $hoovertowernightXcandy
[21.04.17 19:36:41] Ep:0.0000 it:0479/500   611896.8=sum   233815.1=ls   355536.2=lc       -1.0=lref    22545.6=ltv  $hoovertowernightXcandy
[21.04.17 19:36:44] Ep:0.0000 it:0480/500   598216.9=sum   217660.0=ls   357862.6=lc       -1.0=lref    22694.3=ltv  $hoovertowernightXcandy
[21.04.17 19:36:47] Ep:0.0000 it:0481/500   612678.6=sum   234669.0=ls   355472.4=lc       -1.0=lref    22537.3=ltv  $hoovertowernightXcandy
[21.04.17 19:36:50] Ep:0.0000 it:0482/500   600711.9=sum   220642.3=ls   357410.1=lc       -1.0=lref    22659.6=ltv  $hoovertowernightXcandy
[21.04.17 19:36:52] Ep:0.0000 it:0483/500   604854.9=sum   225535.7=ls   356694.8=lc       -1.0=lref    22624.4=ltv  $hoovertowernightXcandy
[21.04.17 19:36:55] Ep:0.0000 it:0484/500   600412.9=sum   220329.5=ls   357409.0=lc       -1.0=lref    22674.4=ltv  $hoovertowernightXcandy
[21.04.17 19:36:58] Ep:0.0000 it:0485/500   611698.9=sum   233519.5=ls   355637.6=lc       -1.0=lref    22541.8=ltv  $hoovertowernightXcandy
[21.04.17 19:37:01] Ep:0.0000 it:0486/500   603556.8=sum   224025.7=ls   356899.3=lc       -1.0=lref    22631.8=ltv  $hoovertowernightXcandy
[21.04.17 19:37:03] Ep:0.0000 it:0487/500   609641.5=sum   231172.3=ls   355911.3=lc       -1.0=lref    22557.9=ltv  $hoovertowernightXcandy
[21.04.17 19:37:06] Ep:0.0000 it:0488/500   604839.7=sum   225531.2=ls   356697.2=lc       -1.0=lref    22611.3=ltv  $hoovertowernightXcandy
[21.04.17 19:37:09] Ep:0.0000 it:0489/500   605747.8=sum   226631.5=ls   356512.6=lc       -1.0=lref    22603.8=ltv  $hoovertowernightXcandy
[21.04.17 19:37:12] Ep:0.0000 it:0490/500   605573.2=sum   226487.8=ls   356479.9=lc       -1.0=lref    22605.4=ltv  $hoovertowernightXcandy
[21.04.17 19:37:15] Ep:0.0000 it:0491/500   601103.8=sum   221168.8=ls   357275.0=lc       -1.0=lref    22660.0=ltv  $hoovertowernightXcandy
[21.04.17 19:37:17] Ep:0.0000 it:0492/500   616374.2=sum   239178.2=ls   354711.7=lc       -1.0=lref    22484.4=ltv  $hoovertowernightXcandy
[21.04.17 19:37:20] Ep:0.0000 it:0493/500   609301.9=sum   230943.7=ls   355799.8=lc       -1.0=lref    22558.3=ltv  $hoovertowernightXcandy
[21.04.17 19:37:23] Ep:0.0000 it:0494/500   607401.6=sum   228700.5=ls   356113.8=lc       -1.0=lref    22587.2=ltv  $hoovertowernightXcandy
[21.04.17 19:37:26] Ep:0.0000 it:0495/500   614152.6=sum   236725.4=ls   354915.4=lc       -1.0=lref    22511.7=ltv  $hoovertowernightXcandy
[21.04.17 19:37:29] Ep:0.0000 it:0496/500   607857.8=sum   229146.0=ls   356137.4=lc       -1.0=lref    22574.5=ltv  $hoovertowernightXcandy
[21.04.17 19:37:32] Ep:0.0000 it:0497/500   610297.0=sum   232035.3=ls   355711.4=lc       -1.0=lref    22550.3=ltv  $hoovertowernightXcandy
[21.04.17 19:37:35] Ep:0.0000 it:0498/500   607065.6=sum   228242.5=ls   356240.4=lc       -1.0=lref    22582.7=ltv  $hoovertowernightXcandy
[21.04.17 19:37:38] Ep:0.0000 it:0499/500   609526.8=sum   231236.3=ls   355730.2=lc       -1.0=lref    22560.2=ltv  $hoovertowernightXcandy
[21.04.17 19:37:41] Ep:0.0000 it:0500/500   611065.8=sum   232972.7=ls   355555.0=lc       -1.0=lref    22538.1=ltv  $hoovertowernightXcandy
