near/all: 0.0987396240234 for Xcandy040000
near/all: 0.0787150065104 for Xcandy080000
near/all: 0.0588226318359 for Xfamosas-crop040000
near/all: 0.0447896321615 for Xfamosas-crop080000

near/all: 0.0702667236328 for average
